{
  "access_token": "ya29.GltsBphUJAd1yKlAOlb0H-PwIpzv-ZbZ-B56xtA-_G8deDSM787VoCUw6kmwgiZbttBkNaFNgeY_rS-13BEBr_PgPG1FWuBcjCAdgT4p6OdyYmP1dOn9UaFHktXH",
  "refresh_token": "1/fLhG7mYDHldZ-AG9gQiSDFWlIpsO0ELNi1J5_mQs4fwEmfPV1Mjsfg0VupSmwwHy",
  "scope": "https://www.googleapis.com/auth/calendar.readonly",
  "token_type": "Bearer",
  "expiry_date": 1544303347285
}
